Problem Set 3
…
Ans 1.1.4

# Given Method
not_cancelled %>% count(dest)

## # A tibble: 104 x 2
##    dest      n
##    <chr> <int>
##  1 ABQ     254
##  2 ACK     264
##  3 ALB     418
##  4 ANC       8
##  5 ATL   16837
##  6 AUS    2411
##  7 AVL     261
##  8 BDL     412
##  9 BGR     358
## 10 BHM     269
## # ... with 94 more rows

# Alternative Method
not_cancelled %>%
  group_by(dest) %>%
  summarise(n())

## # A tibble: 104 x 2
##    dest  `n()`
##    <chr> <int>
##  1 ABQ     254
##  2 ACK     264
##  3 ALB     418
##  4 ANC       8
##  5 ATL   16837
##  6 AUS    2411
##  7 AVL     261
##  8 BDL     412
##  9 BGR     358
## 10 BHM     269
## # ... with 94 more rows

# Given Method
not_cancelled %>% count(tailnum, wt = distance)

## # A tibble: 4,037 x 2
##    tailnum      n
##    <chr>    <dbl>
##  1 D942DN    3418
##  2 N0EGMQ  239143
##  3 N10156  109664
##  4 N102UW   25722
##  5 N103US   24619
##  6 N104UW   24616
##  7 N10575  139903
##  8 N105UW   23618
##  9 N107US   21677
## 10 N108UW   32070
## # ... with 4,027 more rows

# Alternative Method
not_cancelled %>%
  group_by(tailnum) %>%
  tally(wt = distance)

## # A tibble: 4,037 x 2
##    tailnum      n
##    <chr>    <dbl>
##  1 D942DN    3418
##  2 N0EGMQ  239143
##  3 N10156  109664
##  4 N102UW   25722
##  5 N103US   24619
##  6 N104UW   24616
##  7 N10575  139903
##  8 N105UW   23618
##  9 N107US   21677
## 10 N108UW   32070
## # ... with 4,027 more rows
…
Ans 1.1.6

Flights to Columbia, SC experience the worse delay times while flights to Lexington, Kentucky experience the least amount of delay time.

avg_delays_by_dest <-
  flights %>%
  group_by(dest) %>%
  na.omit() %>%
  summarise(average_delay_mins = mean(arr_delay)) %>%
  mutate(rank_dest = rank(-average_delay_mins)) %>%
  arrange(rank_dest)

print(avg_delays_by_dest)

## # A tibble: 104 x 3
##    dest  average_delay_mins rank_dest
##    <chr>              <dbl>     <dbl>
##  1 CAE                 41.8         1
##  2 TUL                 33.7         2
##  3 OKC                 30.6         3
##  4 JAC                 28.1         4
##  5 TYS                 24.1         5
##  6 MSN                 20.2         6
##  7 RIC                 20.1         7
##  8 CAK                 19.7         8
##  9 DSM                 19.0         9
## 10 GRR                 18.2        10
## # ... with 94 more rows
…
Ans1.2.1.

*N15910 has most minutes of delay. It was found out by summing minutes of all arrival delays of a particular tailnum and then arranging in descending order.

not_cancelled <-
  flights %>%
  filter(!is.na(dep_delay), !is.na(arr_delay))

not_cancelled %>%
  group_by(tailnum) %>%
  summarise(sumdelay = sum(arr_delay)) %>%
  arrange(desc(sumdelay))

## # A tibble: 4,037 x 2
##    tailnum sumdelay
##    <chr>      <dbl>
##  1 N15910      7317
##  2 N15980      7134
##  3 N16919      6904
##  4 N228JB      6778
##  5 N14998      6087
##  6 N192JB      5810
##  7 N292JB      5804
##  8 N12921      5788
##  9 N13958      5620
## 10 N10575      5566
## # ... with 4,027 more rows
…
Ans1.2.3. All the destinations that are flown by at least two carriers.

flights %>%
  group_by(dest) %>%
  summarise(flownby = n_distinct(carrier)) %>%
  filter(flownby >= 2)

## # A tibble: 76 x 2
##    dest  flownby
##    <chr>   <int>
##  1 ATL         7
##  2 AUS         6
##  3 AVL         2
##  4 BDL         2
##  5 BGR         2
##  6 BNA         5
##  7 BOS         7
##  8 BQN         2
##  9 BTV         3
## 10 BUF         4
## # ... with 66 more rows
…
Ans1.2.5a. Computed below airtime and medianairtime table. Most delayed flights that was delayed are arranged.

not_cancelled %>%
  group_by(dest) %>%
  mutate(medianairtime = median(air_time), diff = air_time - medianairtime) %>%
  select(year, month, day, dest, air_time, medianairtime, diff, hour) %>%
  arrange(desc(diff))

## # A tibble: 327,346 x 8
## # Groups:   dest [104]
##     year month   day dest  air_time medianairtime  diff  hour
##    <int> <int> <int> <chr>    <dbl>         <dbl> <dbl> <dbl>
##  1  2013     7    28 SFO        490           345   145    17
##  2  2013     1    28 EGE        382           253   129    17
##  3  2013    11    22 LAX        440           328   112    18
##  4  2013     9    10 DEN        331           225   106    15
##  5  2013     6    29 ACK        141            41   100     8
##  6  2013    11    22 LAS        399           301    98    17
##  7  2013     1     2 OKC        286           190    96    19
##  8  2013     1    15 OKC        284           190    94    19
##  9  2013     7    10 LAX        422           328    94    18
## 10  2013    12     6 SFO        438           345    93    17
## # ... with 327,336 more rows

Ans1.2.5b. Flights are arranged according to speed in air.

not_cancelled %>%
  group_by(dest) %>%
  mutate(speed = distance / air_time) %>%
  select(
    year, month, day, dest, air_time, speed, hour, minute, dep_delay,
    flight, carrier
  ) %>%
  arrange(desc(speed))

## # A tibble: 327,346 x 11
## # Groups:   dest [104]
##     year month   day dest  air_time speed  hour minute dep_delay flight
##    <int> <int> <int> <chr>    <dbl> <dbl> <dbl>  <dbl>     <dbl>  <int>
##  1  2013     5    25 ATL         65 11.7     17      0         9   1499
##  2  2013     7     2 MSP         93 10.8     15     13        45   4667
##  3  2013     5    13 GSP         55 10.8     20     25        15   4292
##  4  2013     3    23 BNA         70 10.7     19     10         4   3805
##  5  2013     1    12 PBI        105  9.86    16      0        -1   1902
##  6  2013    11    17 SJU        170  9.4      6     55        -5    315
##  7  2013     2    21 SJU        172  9.29    23     58        -3    707
##  8  2013    11    17 STT        175  9.27     8      0        -1    936
##  9  2013    11    16 SJU        173  9.24    19     25        38    347
## 10  2013    11    16 SJU        173  9.24    23     59       -10   1503
## # ... with 327,336 more rows, and 1 more variable: carrier <chr>

Ans1.2.6 Counted number of flights before the first delay of greater than 1 hour.

not_cancelled %>%
  arrange(tailnum, time_hour) %>%
  group_by(tailnum) %>%
  mutate(delay_more_than1hr = dep_delay > 60) %>%
  mutate(Before_firstdelay = cumsum(delay_more_than1hr)) %>%
  filter(Before_firstdelay < 1) %>%
  count() %>%
  arrange(-n)

## # A tibble: 3,804 x 2
## # Groups:   tailnum [3,804]
##    tailnum     n
##    <chr>   <int>
##  1 N954UW    206
##  2 N952UW    162
##  3 N957UW    141
##  4 N5FAAA    117
##  5 N516JB    100
##  6 N38727     99
##  7 N3742C     98
##  8 N5EWAA     97
##  9 N705TW     97
## 10 N765US     97
## # ... with 3,794 more rows
…
chi.flights.delay$ON_TIME <- ONTIME_FL_BY_DAY$ON_TIME

chi.flights.delay <- 
  chi.flights.delay %>%
  mutate(PROP_ON_TIME = ON_TIME / TOTAL_FL_BY_DAY,
         PROP_ON_TIME_80 = PROP_ON_TIME >= .8)

print(chi.flights.delay)

## # A tibble: 366 x 7
##    FL_DATE    AVG_DELAY_BY_DAY TOTAL_FL_BY_DAY AVG_DAY_OF_WEEK ON_TIME
##    <date>                <dbl>           <int>           <dbl>   <int>
##  1 2016-01-30            -15.7             641               6     509
##  2 2016-02-20            -14.8             679               6     644
##  3 2016-11-24            -14.5             514               4     516
##  4 2016-02-01            -14.5             862               1     484
##  5 2016-02-07            -13.4             686               7     618
##  6 2016-05-29            -12.9             755               7     687
##  7 2016-02-27            -12.7             680               6     655
##  8 2016-02-06            -11.6             638               6     578
##  9 2016-09-04            -11.6             737               7     373
## 10 2016-09-03            -11.4             674               6     459
## # ... with 356 more rows, and 2 more variables: PROP_ON_TIME <dbl>,
## #   PROP_ON_TIME_80 <lgl>
…
Ans 2.1.2. After filtering out flights with fewer than 906 flights (used the average number of flights as a benchmark for filtering), we see that the end of spring/summer months (May-August) and the end of year holiday season in December tends to have the most number of flights flying into Chicago.

flights_to_chi <- 
  chi.flights %>%
  filter(DEST == "ORD" | DEST == "MDW") %>%
  group_by(FL_DATE) %>%
  summarise(TOTAL_FL_BY_DAY = n()) %>%
  arrange(desc(TOTAL_FL_BY_DAY)
  )

print(flights_to_chi)

## # A tibble: 366 x 2
##    FL_DATE    TOTAL_FL_BY_DAY
##    <date>               <int>
##  1 2016-07-05            1033
##  2 2016-07-25            1030
##  3 2016-07-06            1028
##  4 2016-07-11            1028
##  5 2016-07-12            1028
##  6 2016-07-13            1028
##  7 2016-07-19            1027
##  8 2016-07-21            1027
##  9 2016-07-26            1027
## 10 2016-11-27            1027
## # ... with 356 more rows
…
